x,y
-2.5,-0.801
-2.32,-0.681
-2.14,-0.539
-1.96,-0.379
-1.78,-0.208
-1.6,-0.029
-1.42,0.15
-1.25,0.315
-1.07,0.48
-0.89,0.629
-0.71,0.758
-0.53,0.863
-0.35,0.939
-0.17,0.986
0.0,1.0
0.17,0.986
0.35,0.939
0.53,0.863
0.71,0.758
0.89,0.629
1.07,0.48
1.25,0.315
1.42,0.15
1.6,-0.029
1.78,-0.208
1.96,-0.379
2.14,-0.539
2.32,-0.681
2.5,-0.801